{
  "appenders": [
    {
      "type": "console"
    },
    {
      "type": "dateFile",
      "maxLogSize": 20480,
      "filename": "./logs/Controllers.log",
      "category": "Controllers",
      "alwaysIncludePattern": true
    },
    {
      "type": "dateFile",
      "maxLogSize": 20480,
      "filename": "./logs/MssqlError.log",
      "category": "MssqlError",
      "alwaysIncludePattern": true
    }
  ]
}